{
  "$schema": "https://raw.githubusercontent.com/DotNetAnalyzers/StyleCopAnalyzers/master/StyleCop.Analyzers/StyleCop.Analyzers/Settings/stylecop.schema.json",
  "settings": {
    "documentationRules": {
      "companyName": "Proving Ground LLC",
      "xmlHeader": true,
      "copyrightText": "Copyright (c) {companyName}.\nThe following software source code was previously developed by\nProving Ground and should be considered \"PROVING GROUND\nMaterial\".",
      "headerDecoration": "-------------------------------------------------------------------------",
      "documentInterfaces": false,
      "documentInternalElements": false,
      "documentExposedElements": false,
      "documentPrivateElements": false,
      "documentPrivateFields": false
    },
    "layoutRules": {
      "newlineAtEndOfFile": "require"
    }
  }
}
