<?xml version="1.0" encoding="UTF-8" standalone="no"?>
<!-- Created with Inkscape (http://www.inkscape.org/) -->

<svg
   xmlns:dc="http://purl.org/dc/elements/1.1/"
   xmlns:cc="http://creativecommons.org/ns#"
   xmlns:rdf="http://www.w3.org/1999/02/22-rdf-syntax-ns#"
   xmlns:svg="http://www.w3.org/2000/svg"
   xmlns="http://www.w3.org/2000/svg"
   xmlns:sodipodi="http://sodipodi.sourceforge.net/DTD/sodipodi-0.dtd"
   xmlns:inkscape="http://www.inkscape.org/namespaces/inkscape"
   width="24"
   height="24"
   id="svg2"
   version="1.1"
   inkscape:version="0.91 r13725"
   sodipodi:docname="PG_Conduit_Pie.svg"
   inkscape:export-filename="C:\Users\archinate\Documents\BitBucket\dev-pglibs\ProvingGround.Conduit\Graphics\PNG\PG_Conduit_Pie.png"
   inkscape:export-xdpi="90"
   inkscape:export-ydpi="90">
  <defs
     id="defs4">
    <marker
       inkscape:stockid="Arrow2Mend"
       orient="auto"
       refY="0.0"
       refX="0.0"
       id="Arrow2Mend"
       style="overflow:visible;">
      <path
         id="path3938"
         style="fill-rule:evenodd;stroke-width:0.62500000;stroke-linejoin:round;"
         d="M 8.7185878,4.0337352 L -2.2072895,0.016013256 L 8.7185884,-4.0017078 C 6.9730900,-1.6296469 6.9831476,1.6157441 8.7185878,4.0337352 z "
         transform="scale(0.6) rotate(180) translate(0,0)" />
    </marker>
    <marker
       inkscape:stockid="Arrow2Send"
       orient="auto"
       refY="0.0"
       refX="0.0"
       id="Arrow2Send"
       style="overflow:visible;">
      <path
         id="path3944"
         style="fill-rule:evenodd;stroke-width:0.62500000;stroke-linejoin:round;"
         d="M 8.7185878,4.0337352 L -2.2072895,0.016013256 L 8.7185884,-4.0017078 C 6.9730900,-1.6296469 6.9831476,1.6157441 8.7185878,4.0337352 z "
         transform="scale(0.3) rotate(180) translate(-2.3,0)" />
    </marker>
    <marker
       inkscape:stockid="Arrow1Send"
       orient="auto"
       refY="0.0"
       refX="0.0"
       id="Arrow1Send"
       style="overflow:visible;">
      <path
         id="path3926"
         d="M 0.0,0.0 L 5.0,-5.0 L -12.5,0.0 L 5.0,5.0 L 0.0,0.0 z "
         style="fill-rule:evenodd;stroke:#000000;stroke-width:1.0pt;"
         transform="scale(0.2) rotate(180) translate(6,0)" />
    </marker>
    <marker
       inkscape:stockid="Arrow2Lend"
       orient="auto"
       refY="0.0"
       refX="0.0"
       id="Arrow2Lend"
       style="overflow:visible;">
      <path
         id="path3932"
         style="fill-rule:evenodd;stroke-width:0.62500000;stroke-linejoin:round;"
         d="M 8.7185878,4.0337352 L -2.2072895,0.016013256 L 8.7185884,-4.0017078 C 6.9730900,-1.6296469 6.9831476,1.6157441 8.7185878,4.0337352 z "
         transform="scale(1.1) rotate(180) translate(1,0)" />
    </marker>
    <inkscape:perspective
       sodipodi:type="inkscape:persp3d"
       inkscape:vp_x="-24.239388 : 28.156793 : 1"
       inkscape:vp_y="0 : 1156.5081 : 0"
       inkscape:vp_z="43.004666 : 26.596714 : 1"
       inkscape:persp3d-origin="14.87977 : -0.093302615 : 1"
       id="perspective2987" />
    <filter
       id="filter3883"
       style="color-interpolation-filters:sRGB;"
       inkscape:label="Drop Shadow">
      <feFlood
         id="feFlood3885"
         flood-opacity="0.2"
         flood-color="rgb(0,0,0)"
         result="flood" />
      <feComposite
         id="feComposite3887"
         in2="SourceGraphic"
         in="flood"
         operator="in"
         result="composite1" />
      <feGaussianBlur
         id="feGaussianBlur3889"
         in="composite"
         stdDeviation="0.2"
         result="blur" />
      <feOffset
         id="feOffset3891"
         dx="2"
         dy="2"
         result="offset" />
      <feComposite
         id="feComposite3893"
         in2="offset"
         in="SourceGraphic"
         operator="over"
         result="composite2" />
    </filter>
    <filter
       id="filter8565"
       style="color-interpolation-filters:sRGB;"
       inkscape:label="Drop Shadow">
      <feFlood
         id="feFlood8567"
         flood-opacity="0.2"
         flood-color="rgb(0,0,0)"
         result="flood" />
      <feComposite
         id="feComposite8569"
         in2="SourceGraphic"
         in="flood"
         operator="in"
         result="composite1" />
      <feGaussianBlur
         id="feGaussianBlur8571"
         in="composite"
         stdDeviation="0.2"
         result="blur" />
      <feOffset
         id="feOffset8573"
         dx="2"
         dy="2"
         result="offset" />
      <feComposite
         id="feComposite8575"
         in2="offset"
         in="SourceGraphic"
         operator="over"
         result="composite2" />
    </filter>
  </defs>
  <sodipodi:namedview
     id="base"
     pagecolor="#ffffff"
     bordercolor="#666666"
     borderopacity="1.0"
     inkscape:pageopacity="0.0"
     inkscape:pageshadow="2"
     inkscape:zoom="16"
     inkscape:cx="28.96002"
     inkscape:cy="-4.2719789"
     inkscape:document-units="px"
     inkscape:current-layer="layer1"
     showgrid="false"
     inkscape:window-width="2560"
     inkscape:window-height="1377"
     inkscape:window-x="1912"
     inkscape:window-y="-8"
     inkscape:window-maximized="1" />
  <metadata
     id="metadata7">
    <rdf:RDF>
      <cc:Work
         rdf:about="">
        <dc:format>image/svg+xml</dc:format>
        <dc:type
           rdf:resource="http://purl.org/dc/dcmitype/StillImage" />
        <dc:title />
      </cc:Work>
    </rdf:RDF>
  </metadata>
  <g
     inkscape:label="Layer 1"
     inkscape:groupmode="layer"
     id="layer1"
     transform="translate(0,-1028.3622)">
    <path
       style="fill:#ff0073;fill-opacity:1;stroke:#000000;stroke-linecap:round;stroke-linejoin:round;stroke-opacity:1"
       d="m 12.361218,1051.0569 c -0.824091,-0.078 -1.654906,-0.2755 -2.396577,-0.5693 -0.704887,-0.2793 -1.240834,-0.5629 -1.936354,-1.0247 l -0.421688,-0.28 0.413364,-0.4158 c 0.227351,-0.2288 1.797181,-1.8152 3.488512,-3.5255 l 3.075149,-3.1095 2.18e-4,-4.962 c 2.19e-4,-4.7991 0.0017,-4.9619 0.04486,-4.9619 0.09101,0 0.727716,0.1269 1.046829,0.2087 1.742007,0.4463 3.323063,1.3934 4.560265,2.7316 1.186319,1.2831 1.956449,2.7134 2.301764,4.2748 0.373285,1.688 0.286192,3.5867 -0.237554,5.1789 -0.49646,1.5093 -1.447805,2.9373 -2.702548,4.0566 -1.628034,1.4523 -3.438136,2.2307 -5.581739,2.4006 -0.365345,0.029 -1.338397,0.027 -1.6545,0 z m -8.979868,-2.0073 c -1.474049,-1.8361 -2.220837,-3.8617 -2.295037,-6.2252 -0.0813,-2.5896 0.738261,-4.9392 2.423926,-6.9491 l 0.08901,-0.1062 3.40617,3.3879 3.40617,3.3879 -3.398004,3.3819 c -1.868902,1.8601 -3.403533,3.3824 -3.410291,3.383 -0.0068,5e-4 -0.106632,-0.1165 -0.221942,-0.2602 z m 4.636999,-12.7059 -3.881293,-3.8813 0.188302,-0.1453 c 1.772391,-1.3678 3.656251,-2.2501 5.679396,-2.6598 0.626873,-0.127 1.852071,-0.2816 1.894558,-0.2391 0.0069,0.01 0.0098,2.4413 0.0065,5.4097 l -0.0061,5.3972 -3.881294,-3.8814 z"
       id="path4260"
       inkscape:connector-curvature="0" />
  </g>
</svg>
